…
    ## No encoding supplied: defaulting to UTF-8.

    ## # A tibble: 39 x 8
    ##       id firstSeasonId fullName            lastSeasonId mostRecentTeamId teamAbbrev teamCommonName teamPlaceName
    ##    <int>         <int> <chr>                      <int>            <int> <chr>      <chr>          <chr>        
    ##  1     1      19171918 Montréal Canadiens            NA                8 MTL        Canadiens      Montréal     
    ##  2     2      19171918 Montreal Wanderers      19171918               41 MWN        Wanderers      Montreal     
    ##  3     3      19171918 St. Louis Eagles        19341935               45 SLE        Eagles         St. Louis    
    ##  4     4      19191920 Hamilton Tigers         19241925               37 HAM        Tigers         Hamilton     
    ##  5     5      19171918 Toronto Maple Leafs           NA               10 TOR        Maple Leafs    Toronto      
    ##  6     6      19241925 Boston Bruins                 NA                6 BOS        Bruins         Boston       
    ##  7     7      19241925 Montreal Maroons        19371938               43 MMR        Maroons        Montreal     
    ##  8     8      19251926 Brooklyn Americans      19411942               51 BRK        Americans      Brooklyn     
    ##  9     9      19251926 Philadelphia Quake…     19301931               39 QUA        Quakers        Philadelphia 
    ## 10    10      19261927 New York Rangers              NA                3 NYR        Rangers        New York     
    ## # … with 29 more rows
…
franTeamTot(activeFranchise)
```

    ## No encoding supplied: defaulting to UTF-8.

    ## # A tibble: 105 x 30
    ##       id activeFranchise firstSeasonId franchiseId gameTypeId gamesPlayed goalsAgainst goalsFor homeLosses
    ##    <int>           <int>         <int>       <int>      <int>       <int>        <int>    <int>      <int>
    ##  1     1               1      19821983          23          2        2993         8902     8792        525
    ##  2     2               1      19821983          23          3         257          634      697         53
    ##  3     3               1      19721973          22          2        3788        11907    12045        678
    ##  4     4               1      19721973          22          3         310          899      986         53
    ##  5     5               1      19261927          10          2        6560        20020    20041       1143
    ##  6     6               1      19261927          10          3         518         1447     1404        104
    ##  7     7               1      19671968          16          3         449         1332     1335         97
    ##  8     8               1      19671968          16          2        4171        12255    13690        584
    ##  9     9               1      19671968          17          2        4171        14049    13874        683
    ## 10    10               1      19671968          17          3         391         1131     1190         85
    ## # … with 95 more rows, and 21 more variables: homeOvertimeLosses <int>, homeTies <int>, homeWins <int>,
    ## #   lastSeasonId <int>, losses <int>, overtimeLosses <int>, penaltyMinutes <int>, pointPctg <dbl>,
    ## #   points <int>, roadLosses <int>, roadOvertimeLosses <int>, roadTies <int>, roadWins <int>,
    ## #   shootoutLosses <int>, shootoutWins <int>, shutouts <int>, teamId <int>, name <chr>, ties <int>,
    ## #   triCode <chr>, wins <int>
…
    ## No encoding supplied: defaulting to UTF-8.

    ## # A tibble: 39 x 57
    ##       id fewestGoals fewestGoalsAgain… fewestGoalsAgainst… fewestGoalsSeasons fewestLosses fewestLossesSeasons  
    ##    <int>       <int>             <int> <chr>               <chr>                     <int> <chr>                
    ##  1     1         174               164 2003-04 (82)        2010-11 (82)                 19 2000-01 (82)         
    ##  2     2         170               190 1975-76 (80)        1972-73 (78)                 15 1978-79 (80)         
    ##  3     3         150               177 1970-71 (78)        1954-55 (70)                 17 1971-72 (78)         
    ##  4     4         173               164 1973-74 (78)        1967-68 (74)                 12 1979-80 (80)         
    ##  5     5         182               188 1997-98 (82)        1969-70 (76)                 21 1992-93 (84), 2016-1…
    ##  6     6         147               172 1952-53 (70)        1955-56 (70)                 13 1971-72 (78)         
    ##  7     7         157               175 1998-99 (82)        2013-14 (82)                 16 1974-75 (80)         
    ##  8     8         155               131 1955-56 (70)        1952-53 (70)                  8 1976-77 (80)         
    ##  9     9         191               179 1998-99 (82)        1995-96 (82), 201…           21 2000-01 (82), 2002-0…
    ## 10    10         147               131 1953-54 (70)        1954-55 (70)                 16 1950-51 (70)         
    ## # … with 29 more rows, and 50 more variables: fewestPoints <int>, fewestPointsSeasons <chr>, fewestTies <int>,
    ## #   fewestTiesSeasons <chr>, fewestWins <int>, fewestWinsSeasons <chr>, franchiseId <int>, franchiseName <chr>,
    ## #   homeLossStreak <int>, homeLossStreakDates <chr>, homePointStreak <int>, homePointStreakDates <chr>,
    ## #   homeWinStreak <int>, homeWinStreakDates <chr>, homeWinlessStreak <int>, homeWinlessStreakDates <chr>,
    ## #   lossStreak <int>, lossStreakDates <chr>, mostGameGoals <int>, mostGameGoalsDates <chr>, mostGoals <int>,
    ## #   mostGoalsAgainst <int>, mostGoalsAgainstSeasons <chr>, mostGoalsSeasons <chr>, mostLosses <int>,
    ## #   mostLossesSeasons <chr>, mostPenaltyMinutes <int>, mostPenaltyMinutesSeasons <chr>, mostPoints <int>,
    ## #   mostPointsSeasons <chr>, mostShutouts <int>, mostShutoutsSeasons <chr>, mostTies <int>,
    ## #   mostTiesSeasons <chr>, mostWins <int>, mostWinsSeasons <chr>, pointStreak <int>, pointStreakDates <chr>,
…
``` r
  goalieList <- as_tibble(goalieJson$data)
  goalieList
```

    ## # A tibble: 1,078 x 29
    ##       id activePlayer firstName franchiseId franchiseName       gameTypeId gamesPlayed lastName losses
    ##    <int> <lgl>        <chr>           <int> <chr>                    <int>       <int> <chr>     <int>
    ##  1   235 FALSE        Don                15 Dallas Stars                 2         315 Beaupre     125
    ##  2   236 FALSE        Bob                28 Arizona Coyotes              2         281 Essensa     114
    ##  3   237 FALSE        Tony               11 Chicago Blackhawks           2         873 Esposito    302
    ##  4   238 FALSE        Grant              25 Edmonton Oilers              2         423 Fuhr        117
    ##  5   239 FALSE        Ron                16 Philadelphia Flyers          2         489 Hextall     172
    ##  6   240 FALSE        Curtis             18 St. Louis Blues              2         280 Joseph       96
    ##  7   241 FALSE        Olie               24 Washington Capitals          2         711 Kolzig      293
    ##  8   242 FALSE        Mike               18 St. Louis Blues              2         347 Liut        133
    ##  9   243 FALSE        Kirk               20 Vancouver Canucks            2         516 McLean      228
    ## 10   244 FALSE        Gilles             13 Cleveland Barons             2         250 Meloche     140
    ## # … with 1,068 more rows, and 20 more variables: mostGoalsAgainstDates <chr>, mostGoalsAgainstOneGame <int>,
    ## #   mostSavesDates <chr>, mostSavesOneGame <int>, mostShotsAgainstDates <chr>, mostShotsAgainstOneGame <int>,
    ## #   mostShutoutsOneSeason <int>, mostShutoutsSeasonIds <chr>, mostWinsOneSeason <int>, mostWinsSeasonIds <chr>,
    ## #   overtimeLosses <int>, playerId <int>, positionCode <chr>, rookieGamesPlayed <int>, rookieShutouts <int>,
    ## #   rookieWins <int>, seasons <int>, shutouts <int>, ties <int>, wins <int>
…
    ## No encoding supplied: defaulting to UTF-8.

    ## # A tibble: 17,209 x 31
    ##       id activePlayer assists firstName franchiseId franchiseName        gameTypeId gamesPlayed goals lastName 
    ##    <int> <lgl>          <int> <chr>           <int> <chr>                     <int>       <int> <int> <chr>    
    ##  1 16888 FALSE            417 George              5 Toronto Maple Leafs           2        1188   296 Armstrong
    ##  2 16889 FALSE              0 Billy               2 Montreal Wanderers            2           2     1 Bell     
    ##  3 16890 FALSE            794 Johnny              6 Boston Bruins                 2        1436   545 Bucyk    
    ##  4 16891 FALSE            712 Jean                1 Montréal Canadiens            2        1125   507 Beliveau 
    ##  5 16892 FALSE           1111 Ray                 6 Boston Bruins                 2        1518   395 Bourque  
    ##  6 16893 FALSE             33 Harold              9 Philadelphia Quakers          2         216    60 Darragh  
    ##  7 16894 FALSE             13 Herb                9 Philadelphia Quakers          2         216    24 Drury    
    ##  8 16895 FALSE            852 Bobby              16 Philadelphia Flyers           2        1144   358 Clarke   
    ##  9 16896 FALSE            142 Ken                23 New Jersey Devils             2        1283    36 Daneyko  
    ## 10 16897 FALSE              0 Gerry               2 Montreal Wanderers            2           4     0 Geran    
    ## # … with 17,199 more rows, and 21 more variables: mostAssistsGameDates <chr>, mostAssistsOneGame <int>,
    ## #   mostAssistsOneSeason <int>, mostAssistsSeasonIds <chr>, mostGoalsGameDates <chr>, mostGoalsOneGame <int>,
    ## #   mostGoalsOneSeason <int>, mostGoalsSeasonIds <chr>, mostPenaltyMinutesOneSeason <int>,
    ## #   mostPenaltyMinutesSeasonIds <chr>, mostPointsGameDates <chr>, mostPointsOneGame <int>,
    ## #   mostPointsOneSeason <int>, mostPointsSeasonIds <chr>, penaltyMinutes <int>, playerId <int>, points <int>,
    ## #   positionCode <chr>, rookieGamesPlayed <int>, rookiePoints <int>, seasons <int>
…
    ## No encoding supplied: defaulting to UTF-8.

    ## # A tibble: 39 x 13
    ##       id active captainHistory    coachingHistory    dateAwarded  directoryUrl  firstSeasonId generalManagerHis…
    ##    <int> <lgl>  <chr>             <chr>              <chr>        <chr>                 <int> <chr>             
    ##  1     1 TRUE   "<ul class=\"str… "<ul class=\"stri… 1917-11-26T… https://www.…      19171918 "<ul class=\"stri…
    ##  2     2 FALSE   <NA>              <NA>              1917-11-26T… <NA>               19171918  <NA>             
    ##  3     3 FALSE   <NA>              <NA>              1917-11-26T… <NA>               19171918  <NA>             
    ##  4     4 FALSE   <NA>              <NA>              1917-11-26T… <NA>               19191920  <NA>             
    ##  5     5 TRUE   "<ul class=\"str… "<ul class=\"stri… 1917-11-26T… https://www.…      19171918 "<ul class=\"stri…
    ##  6     6 TRUE   "<ul class=\"str… "<ul class=\"stri… 1924-11-01T… https://www.…      19241925 "<ul class=\"stri…
    ##  7     7 FALSE   <NA>              <NA>              1924-11-01T… <NA>               19241925  <NA>             
    ##  8     8 FALSE   <NA>              <NA>              1925-09-22T… <NA>               19251926  <NA>             
    ##  9     9 FALSE   <NA>              <NA>              1925-11-07T… <NA>               19251926  <NA>             
    ## 10    10 TRUE   "<ul class=\"str… "<ul class=\"stri… 1926-05-15T… https://www.…      19261927 "<ul class=\"stri…
    ## # … with 29 more rows, and 5 more variables: heroImageUrl <chr>, mostRecentTeamId <int>,
    ## #   retiredNumbersSummary <chr>, teamAbbrev <chr>, teamFullName <chr>
…
The wrapper function is used to be an easier way to call a previous
created functions so that the user has an easier time using the
functions.

``` r
nhlfranchise <- function(franchise){
    franchise(id)
}
nhlfranchise(1)
```

    ## No encoding supplied: defaulting to UTF-8.

    ## # A tibble: 39 x 8
    ##       id firstSeasonId fullName            lastSeasonId mostRecentTeamId teamAbbrev teamCommonName teamPlaceName
    ##    <int>         <int> <chr>                      <int>            <int> <chr>      <chr>          <chr>        
    ##  1     1      19171918 Montréal Canadiens            NA                8 MTL        Canadiens      Montréal     
    ##  2     2      19171918 Montreal Wanderers      19171918               41 MWN        Wanderers      Montreal     
    ##  3     3      19171918 St. Louis Eagles        19341935               45 SLE        Eagles         St. Louis    
    ##  4     4      19191920 Hamilton Tigers         19241925               37 HAM        Tigers         Hamilton     
    ##  5     5      19171918 Toronto Maple Leafs           NA               10 TOR        Maple Leafs    Toronto      
    ##  6     6      19241925 Boston Bruins                 NA                6 BOS        Bruins         Boston       
    ##  7     7      19241925 Montreal Maroons        19371938               43 MMR        Maroons        Montreal     
    ##  8     8      19251926 Brooklyn Americans      19411942               51 BRK        Americans      Brooklyn     
    ##  9     9      19251926 Philadelphia Quake…     19301931               39 QUA        Quakers        Philadelphia 
    ## 10    10      19261927 New York Rangers              NA                3 NYR        Rangers        New York     
    ## # … with 29 more rows

``` r
nhlSeason <- function(seasonRecords){
    seasonRecords(id)
}
nhlSeason(4)
```

    ## No encoding supplied: defaulting to UTF-8.

    ## # A tibble: 39 x 57
    ##       id fewestGoals fewestGoalsAgain… fewestGoalsAgainst… fewestGoalsSeasons fewestLosses fewestLossesSeasons  
    ##    <int>       <int>             <int> <chr>               <chr>                     <int> <chr>                
    ##  1     1         174               164 2003-04 (82)        2010-11 (82)                 19 2000-01 (82)         
    ##  2     2         170               190 1975-76 (80)        1972-73 (78)                 15 1978-79 (80)         
    ##  3     3         150               177 1970-71 (78)        1954-55 (70)                 17 1971-72 (78)         
    ##  4     4         173               164 1973-74 (78)        1967-68 (74)                 12 1979-80 (80)         
    ##  5     5         182               188 1997-98 (82)        1969-70 (76)                 21 1992-93 (84), 2016-1…
    ##  6     6         147               172 1952-53 (70)        1955-56 (70)                 13 1971-72 (78)         
    ##  7     7         157               175 1998-99 (82)        2013-14 (82)                 16 1974-75 (80)         
    ##  8     8         155               131 1955-56 (70)        1952-53 (70)                  8 1976-77 (80)         
    ##  9     9         191               179 1998-99 (82)        1995-96 (82), 201…           21 2000-01 (82), 2002-0…
    ## 10    10         147               131 1953-54 (70)        1954-55 (70)                 16 1950-51 (70)         
    ## # … with 29 more rows, and 50 more variables: fewestPoints <int>, fewestPointsSeasons <chr>, fewestTies <int>,
    ## #   fewestTiesSeasons <chr>, fewestWins <int>, fewestWinsSeasons <chr>, franchiseId <int>, franchiseName <chr>,
    ## #   homeLossStreak <int>, homeLossStreakDates <chr>, homePointStreak <int>, homePointStreakDates <chr>,
    ## #   homeWinStreak <int>, homeWinStreakDates <chr>, homeWinlessStreak <int>, homeWinlessStreakDates <chr>,
    ## #   lossStreak <int>, lossStreakDates <chr>, mostGameGoals <int>, mostGameGoalsDates <chr>, mostGoals <int>,
    ## #   mostGoalsAgainst <int>, mostGoalsAgainstSeasons <chr>, mostGoalsSeasons <chr>, mostLosses <int>,
    ## #   mostLossesSeasons <chr>, mostPenaltyMinutes <int>, mostPenaltyMinutesSeasons <chr>, mostPoints <int>,
    ## #   mostPointsSeasons <chr>, mostShutouts <int>, mostShutoutsSeasons <chr>, mostTies <int>,
    ## #   mostTiesSeasons <chr>, mostWins <int>, mostWinsSeasons <chr>, pointStreak <int>, pointStreakDates <chr>,
    ## #   roadLossStreak <int>, roadLossStreakDates <chr>, roadPointStreak <int>, roadPointStreakDates <chr>,
    ## #   roadWinStreak <int>, roadWinStreakDates <chr>, roadWinlessStreak <int>, roadWinlessStreakDates <chr>,
    ## #   winStreak <int>, winStreakDates <chr>, winlessStreak <int>, winlessStreakDates <chr>

``` r
nhlTeamTot <- function(franTeamTot){
    franTeamTot(id)
}
nhlTeamTot(1)
```

    ## No encoding supplied: defaulting to UTF-8.

    ## # A tibble: 105 x 30
    ##       id activeFranchise firstSeasonId franchiseId gameTypeId gamesPlayed goalsAgainst goalsFor homeLosses
    ##    <int>           <int>         <int>       <int>      <int>       <int>        <int>    <int>      <int>
    ##  1     1               1      19821983          23          2        2993         8902     8792        525
    ##  2     2               1      19821983          23          3         257          634      697         53
    ##  3     3               1      19721973          22          2        3788        11907    12045        678
    ##  4     4               1      19721973          22          3         310          899      986         53
    ##  5     5               1      19261927          10          2        6560        20020    20041       1143
    ##  6     6               1      19261927          10          3         518         1447     1404        104
    ##  7     7               1      19671968          16          3         449         1332     1335         97
    ##  8     8               1      19671968          16          2        4171        12255    13690        584
    ##  9     9               1      19671968          17          2        4171        14049    13874        683
    ## 10    10               1      19671968          17          3         391         1131     1190         85
    ## # … with 95 more rows, and 21 more variables: homeOvertimeLosses <int>, homeTies <int>, homeWins <int>,
    ## #   lastSeasonId <int>, losses <int>, overtimeLosses <int>, penaltyMinutes <int>, pointPctg <dbl>,
    ## #   points <int>, roadLosses <int>, roadOvertimeLosses <int>, roadTies <int>, roadWins <int>,
    ## #   shootoutLosses <int>, shootoutWins <int>, shutouts <int>, teamId <int>, name <chr>, ties <int>,
    ## #   triCode <chr>, wins <int>
…
